info face="cash_font" size=32 bold=0 italic=0 charset="" unicode=0 stretchH=100 smooth=1 aa=1 padding=0,0,0,0 spacing=5,5
common lineHeight=54 base=26 scaleW=128 scaleH=128 pages=1 packed=0 alphaChnl=1 redChnl=0 greenChnl=0 blueChnl=0
page id=0 file="cash_font.png"
chars count=10
char id=67 x=80 y=0 width=25 height=35 xoffset=8 yoffset=19 xadvance=28 page=0 chnl=0 letter="C"
char id=65 x=46 y=0 width=29 height=35 xoffset=6 yoffset=19 xadvance=32 page=0 chnl=0 letter="A"
char id=83 x=76 y=40 width=25 height=35 xoffset=8 yoffset=19 xadvance=28 page=0 chnl=0 letter="S"
char id=72 x=46 y=80 width=25 height=35 xoffset=8 yoffset=19 xadvance=28 page=0 chnl=0 letter="H"
char id=66 x=76 y=80 width=23 height=35 xoffset=9 yoffset=19 xadvance=26 page=0 chnl=0 letter="B"
char id=75 x=46 y=40 width=25 height=35 xoffset=8 yoffset=19 xadvance=28 page=0 chnl=0 letter="K"
char id=36820 x=0 y=46 width=41 height=41 xoffset=0 yoffset=17 xadvance=44 page=0 chnl=0 letter="返"
char id=29616 x=0 y=0 width=41 height=41 xoffset=0 yoffset=17 xadvance=44 page=0 chnl=0 letter="现"
char id=32 x=0 y=0 width=0 height=0 xoffset=0 yoffset=0 xadvance=10 page=0 chnl=0 letter=" "
char id=9 x=0 y=0 width=0 height=0 xoffset=0 yoffset=0 xadvance=30 page=0 chnl=0 letter="   "

kernings count=4
kerning first=65  second=67  amount=-7
kerning first=65  second=83  amount=-6
kerning first=66  second=65  amount=0
kerning first=67  second=65  amount=-3
