info face="change_table_font" size=32 bold=0 italic=0 charset="" unicode=0 stretchH=100 smooth=1 aa=1 padding=0,0,0,0 spacing=5,5
common lineHeight=54 base=26 scaleW=256 scaleH=128 pages=1 packed=0 alphaChnl=1 redChnl=0 greenChnl=0 blueChnl=0
page id=0 file="change_table_font.png"
chars count=13
char id=25442 x=65 y=0 width=60 height=61 xoffset=0 yoffset=-2 xadvance=63 page=0 chnl=0 letter="换"
char id=34920 x=0 y=0 width=60 height=61 xoffset=0 yoffset=-2 xadvance=63 page=0 chnl=0 letter="表"
char id=67 x=0 y=66 width=40 height=51 xoffset=10 yoffset=3 xadvance=43 page=0 chnl=0 letter="C"
char id=104 x=158 y=56 width=31 height=52 xoffset=14 yoffset=1 xadvance=34 page=0 chnl=0 letter="h"
char id=97 x=121 y=66 width=32 height=40 xoffset=14 yoffset=14 xadvance=35 page=0 chnl=0 letter="a"
char id=110 x=167 y=0 width=31 height=39 xoffset=14 yoffset=14 xadvance=34 page=0 chnl=0 letter="n"
char id=103 x=130 y=0 width=32 height=51 xoffset=14 yoffset=14 xadvance=35 page=0 chnl=0 letter="g"
char id=101 x=83 y=66 width=33 height=40 xoffset=13 yoffset=14 xadvance=36 page=0 chnl=0 letter="e"
char id=116 x=194 y=44 width=24 height=47 xoffset=18 yoffset=7 xadvance=27 page=0 chnl=0 letter="t"
char id=98 x=45 y=66 width=33 height=53 xoffset=13 yoffset=1 xadvance=36 page=0 chnl=0 letter="b"
char id=108 x=223 y=0 width=18 height=53 xoffset=21 yoffset=1 xadvance=21 page=0 chnl=0 letter="l"
char id=32 x=0 y=0 width=0 height=0 xoffset=0 yoffset=0 xadvance=20 page=0 chnl=0 letter=" "
char id=9 x=0 y=0 width=0 height=0 xoffset=0 yoffset=0 xadvance=160 page=0 chnl=0 letter="	"

kernings count=25
kerning first=67  second=97  amount=-2
kerning first=67  second=104  amount=-1
kerning first=97  second=101  amount=-1
kerning first=97  second=103  amount=-1
kerning first=97  second=116  amount=-4
kerning first=98  second=108  amount=-6
kerning first=101  second=97  amount=-2
kerning first=101  second=108  amount=-1
kerning first=101  second=110  amount=-1
kerning first=101  second=116  amount=-6
kerning first=103  second=97  amount=-2
kerning first=103  second=101  amount=-1
kerning first=103  second=104  amount=-1
kerning first=103  second=108  amount=-1
kerning first=103  second=103  amount=-1
kerning first=104  second=101  amount=-1
kerning first=104  second=103  amount=-1
kerning first=104  second=116  amount=-3
kerning first=108  second=97  amount=-3
kerning first=108  second=101  amount=-1
kerning first=108  second=103  amount=-4
kerning first=110  second=101  amount=-1
kerning first=110  second=103  amount=-1
kerning first=110  second=116  amount=-3
kerning first=116  second=97  amount=0
kerning first=116  second=101  amount=-1
