{
  "__type__": "cc.AnimationClip",
  "_name": "dice",
  "_objFlags": 0,
  "_rawFiles": null,
  "_duration": 1,
  "sample": 60,
  "speed": 1,
  "wrapMode": 1,
  "curveData": {
    "paths": {
      "dice1": {
        "props": {
          "position": [
            {
              "frame": 0,
              "value": [
                135,
                322
              ],
              "motionPath": [
               
              ]
            },
            {
              "frame": 0.3333333333333333,
              "value": [
                130,
                57
              ],
              "motionPath": [
              
              ]
            },
            {
              "frame": 0.6666666666666666,
              "value": [
                87,
                -17
              ],
              "motionPath": []
            },
            {
              "frame": 1,
              "value": [
                65.5,
                -68.7
              ],
              "motionPath": []
            }
          ]
        },
        "comps": {
          "dragonBones.ArmatureDisplay": {}
        }
      },
      "dice2": {
        "props": {
          "position": [
            {
              "frame": 0,
              "value": [
                147,
                408
              ],
              "motionPath": [
                [
                  89,
                  261,
                  112,
                  335,
                  65,
                  184
                ]
              ]
            },
            {
              "frame": 0.3333333333333333,
              "value": [
                53,
                106
              ],
              "motionPath": [
            
              ]
            },
            {
              "frame": 0.6666666666666666,
              "value": [
                23,
                53
              ],
              "motionPath": []
            },
            {
              "frame": 1,
              "value": [
                10,
                15
              ],
              "motionPath": []
            }
          ]
        },
        "comps": {
          "dragonBones.ArmatureDisplay": {}
        }
      },
      "dice3": {
        "props": {
          "position": [
            {
              "frame": 0,
              "value": [
                180,
                411
              ],
              "motionPath": [
         
              ]
            },
            {
              "frame": 0.3333333333333333,
              "value": [
                126.9,
                161
              ],
              "motionPath": [
          
              ]
            },
            {
              "frame": 0.6666666666666666,
              "value": [
                94.5,
                112
              ],
              "motionPath": []
            },
            {
              "frame": 1,
              "value": [
                78.6,
                86
              ],
              "motionPath": []
            }
          ]
        }
      },
      "dice1/sprite1": {
        "props": {
          "opacity": [
            {
              "frame": 0,
              "value": 0
            },
            {
              "frame": 0.95,
              "value": 0
            },
            {
              "frame": 0.9833333333333333,
              "value": 255
            }
          ]
        }
      },
      "dice2/sprite2": {
        "props": {
          "opacity": [
            {
              "frame": 0,
              "value": 0
            },
            {
              "frame": 0.95,
              "value": 0
            },
            {
              "frame": 0.9833333333333333,
              "value": 255
            }
          ]
        }
      },
      "dice3/sprite3": {
        "props": {
          "opacity": [
            {
              "frame": 0,
              "value": 0
            },
            {
              "frame": 0.95,
              "value": 0
            },
            {
              "frame": 0.9833333333333333,
              "value": 255
            }
          ]
        }
      },
      "wind": {
        "props": {
          "position": [
            {
              "frame": 0,
              "value": [
                -29,
                414
              ],
              "motionPath": [
             
              ]
            },
            {
              "frame": 0.3333333333333333,
              "value": [
                -68,
                97
              ],
              "motionPath": [
                [
                  -96,
                  65,
                  -86,
                  82,
                  -106,
                  49
                ]
              ]
            },
            {
              "frame": 0.6666666666666666,
              "value": [
                -109,
                31
              ],
              "motionPath": [
           
              ]
            },
            {
              "frame": 1,
              "value": [
                -141,
                -10
              ],
              "motionPath": []
            }
          ]
        }
      },
      "wind/sprite4": {
        "props": {
          "opacity": [
            {
              "frame": 0,
              "value": 0
            },
            {
              "frame": 0.95,
              "value": 0
            },
            {
              "frame": 0.9833333333333333,
              "value": 255
            }
          ]
        }
      }
    }
  },
  "events": [
    {
      "frame": 1,
      "func": "onDiceEnd",
      "params": []
    }
  ]
}